Linking community science data with population dynamics under stochastic process in the context of ecological release
…
## `summarise()` has grouped output by 'scientific_name'. You can override using
## the `.groups` argument.

spp.carib <- left_join(spp, carib.ebird, by = "scientific_name")

spp.carib %>%
  group_by(state_code,scientific_name) %>%
  summarise(records = n()) %>%
  count(state_code, sort = T)

## `summarise()` has grouped output by 'state_code'. You can override using the
## `.groups` argument.

## # A tibble: 360 × 2
## # Groups:   state_code [360]
##    state_code     n
##    <chr>      <int>
##  1 CR-G         162
##  2 CR-P         161
##  3 BZ-BZ        149
##  4 CR-A         149
##  5 HN-CR        148
##  6 MX-ROO       146
##  7 BZ-SC        144
##  8 HN-AT        140
##  9 MX-YUC       139
## 10 CR-C         138
## # ℹ 350 more rows

Now, let’s play with our species of interest, the Bananaquit
Coereba flaveola

Coefla <- spp.carib %>%
  dplyr::filter(scientific_name == "Coereba flaveola")

#Which states?
Coefla %>% 
  group_by(state_code) %>%
  count(sort = T)

## # A tibble: 255 × 2
## # Groups:   state_code [255]
##    state_code     n
##    <chr>      <int>
##  1 VE-M         521
##  2 CR-P         287
##  3 CR-A         249
##  4 AW-          229
##  5 VE-I         181
##  6 TT-TUP       148
##  7 PA-4         147
##  8 GP-          144
##  9 CR-C         142
## 10 CR-H         134
## # ℹ 245 more rows
…
